<?xml version="1.0" encoding="utf-8"?>
<!-- Generator: Adobe Illustrator 22.0.0, SVG Export Plug-In . SVG Version: 6.00 Build 0)  -->
<svg version="1.1" id="Слой_1" xmlns="http://www.w3.org/2000/svg" xmlns:xlink="http://www.w3.org/1999/xlink" x="0px" y="0px"
	 viewBox="0 0 1002.9 361.6" style="enable-background:new 0 0 1002.9 361.6;" xml:space="preserve">
<style type="text/css">
	.st0{fill:#FFFFFF;}
	.st1{fill:none;stroke:#FFFFFF;stroke-width:2;stroke-miterlimit:10;}
	.st2{fill:none;stroke:#FFFFFF;stroke-width:3;stroke-miterlimit:10;}
</style>
<g>
	<path class="st0" d="M64.6,176.9c1.3,0,2,0.6,2,1.9c0,1.3-0.7,1.9-2,1.9H5c-0.9,0-1.4-0.2-1.6-0.6c-0.2-0.3-0.3-0.8-0.3-1.3v-96
		c0-1.3,0.6-1.9,1.9-1.9c1.3,0,1.9,0.6,1.9,1.9v94.1H64.6z"/>
	<path class="st0" d="M81.1,82.7c0-1.3,0.6-1.9,1.9-1.9c1.3,0,1.9,0.6,1.9,1.9v96c0,1.3-0.6,1.9-1.9,1.9c-1.3,0-1.9-0.6-1.9-1.9
		V82.7z"/>
	<path class="st0" d="M174.1,80.8c1.4,0,2.1,0.6,2.1,1.9c0,1.3-0.7,1.9-2.1,1.9h-33.7v94.1c0,1.3-0.6,1.9-1.9,1.9
		c-1.3,0-1.9-0.6-1.9-1.9V84.7h-34c-1.3,0-1.9-0.6-1.9-1.9c0-1.3,0.6-1.9,1.9-1.9H174.1z"/>
	<path class="st0" d="M264.4,81.9c0.2-0.7,0.5-1.1,0.9-1.2c0.4-0.2,0.9-0.1,1.4,0.1c1.3,0.4,1.7,1.1,1.2,2.4l-40.5,96.8
		c-0.4,0.8-0.9,1.1-1.7,1c-0.4,0.1-0.8,0-1.2-0.1c-0.3-0.2-0.6-0.6-0.8-1.2l-40.3-96.3c-0.6-1.2-0.2-2,1-2.4
		c1.2-0.6,1.9-0.3,2.4,0.7l38.9,92.7L264.4,81.9z"/>
	<path class="st0" d="M282,82.7c0-1.3,0.6-1.9,1.9-1.9c1.3,0,1.9,0.6,1.9,1.9v96c0,1.3-0.6,1.9-1.9,1.9c-1.3,0-1.9-0.6-1.9-1.9V82.7
		z"/>
	<path class="st0" d="M385.4,82.7c0-1.3,0.6-1.9,1.9-1.9c1.3,0,1.9,0.6,1.9,1.9v96.5c-0.1,1-0.7,1.5-1.7,1.5c-0.5,0-0.9-0.1-1.2-0.3
		c-0.3-0.2-0.5-0.4-0.7-0.6l-74.1-91.2v90.1c0,1.3-0.6,1.9-1.9,1.9c-1.3,0-1.9-0.6-1.9-1.9v-96c0-0.6,0.1-1,0.3-1.4
		c0.2-0.3,0.6-0.5,1.2-0.5c0.4,0,0.7,0,0.9,0.1c0.2,0.1,0.4,0.3,0.6,0.6l74.8,91.2V82.7z"/>
	<path class="st0" d="M478,80.8c1.4,0,2.1,0.6,2.1,1.9c0,1.3-0.7,1.9-2.1,1.9h-63.1V127h51.8c1.4,0,2.1,0.6,2.1,1.9
		c0,1.3-0.7,1.9-2.1,1.9h-51.8v46h64.6c1.4,0,2.1,0.6,2.1,1.9c0,1.3-0.7,1.9-2.1,1.9h-67.1c-0.1,0-0.2,0-0.3-0.1
		c-0.1,0-0.2-0.1-0.3-0.1l-0.1-0.1h-0.1c-0.4-0.3-0.6-0.8-0.6-1.7v-96c0-0.5,0-0.8,0.1-1c0.1-0.1,0.1-0.2,0.1-0.3
		c0.2-0.2,0.4-0.3,0.5-0.3c0.4-0.2,0.8-0.3,1.2-0.3H478z"/>
	<path class="st0" d="M572.2,82.7c0-1.3,0.6-1.9,1.9-1.9c1.3,0,1.9,0.6,1.9,1.9v96.5c-0.1,1-0.7,1.5-1.7,1.5c-0.5,0-0.9-0.1-1.2-0.3
		c-0.3-0.2-0.5-0.4-0.7-0.6l-74.1-91.2v90.1c0,1.3-0.6,1.9-1.9,1.9c-1.3,0-1.9-0.6-1.9-1.9v-96c0-0.6,0.1-1,0.3-1.4
		c0.2-0.3,0.6-0.5,1.2-0.5c0.4,0,0.7,0,0.9,0.1c0.2,0.1,0.4,0.3,0.6,0.6l74.8,91.2V82.7z"/>
	<path class="st0" d="M660.2,81.6c0.8-0.8,1.7-0.8,2.8-0.1c0.8,0.9,0.8,1.8,0.1,2.8l-35.8,38.1l46.3,54.9c0.8,1.1,0.8,2-0.1,2.8
		c-1.1,0.8-2,0.7-2.7-0.1L624.9,125l-23.4,24.6v29.1c0,1.3-0.6,1.9-1.9,1.9c-1.3,0-1.9-0.6-1.9-1.9v-96c0-1.3,0.6-1.9,1.9-1.9
		c1.3,0,1.9,0.6,1.9,1.9v61.6L660.2,81.6z"/>
	<path class="st0" d="M684,130.9c0-4.7,0.6-9.2,1.8-13.5c1.2-4.4,2.9-8.4,5.1-12.2c2.2-3.8,4.9-7.2,8-10.3c3.1-3.1,6.5-5.8,10.3-8
		c3.8-2.2,7.8-3.9,12.2-5.2c4.3-1.2,8.9-1.8,13.6-1.8c4.7,0,9.2,0.6,13.5,1.8c4.3,1.2,8.4,3,12.2,5.2c3.8,2.2,7.2,4.9,10.3,8
		c3.1,3.1,5.8,6.6,8,10.3c2.2,3.8,3.9,7.8,5.2,12.2c1.2,4.3,1.8,8.9,1.8,13.6c0,4.7-0.6,9.2-1.8,13.6c-1.2,4.3-3,8.4-5.2,12.2
		c-2.2,3.8-4.9,7.2-8,10.3c-3.1,3.1-6.6,5.7-10.3,8c-3.8,2.2-7.8,3.9-12.2,5.1c-4.3,1.2-8.8,1.8-13.5,1.8c-4.7,0-9.2-0.6-13.6-1.8
		c-4.3-1.2-8.4-2.9-12.2-5.1c-3.8-2.2-7.2-4.9-10.3-8c-3.1-3.1-5.7-6.5-8-10.3c-2.2-3.8-3.9-7.8-5.1-12.2
		C684.6,140.1,684,135.6,684,130.9z M688.1,130.9c0,4.3,0.6,8.4,1.7,12.4c1.1,4,2.7,7.7,4.7,11.2c2,3.5,4.5,6.6,7.3,9.5
		c2.8,2.8,6,5.3,9.5,7.3c3.5,2,7.2,3.6,11.2,4.7c4,1.1,8.2,1.7,12.5,1.7s8.4-0.6,12.4-1.7c4-1.1,7.7-2.7,11.2-4.7
		c3.5-2,6.7-4.5,9.5-7.3c2.9-2.8,5.3-6,7.4-9.5c2.1-3.5,3.6-7.2,4.8-11.2c1.1-4,1.7-8.1,1.7-12.4c0-4.3-0.6-8.4-1.7-12.5
		c-1.1-4-2.7-7.7-4.8-11.2c-2.1-3.5-4.5-6.6-7.4-9.5c-2.9-2.9-6-5.3-9.5-7.4c-3.5-2.1-7.2-3.6-11.2-4.8c-4-1.1-8.1-1.7-12.4-1.7
		s-8.4,0.6-12.5,1.7c-4,1.1-7.7,2.7-11.2,4.8c-3.5,2.1-6.6,4.5-9.5,7.4c-2.8,2.9-5.3,6-7.3,9.5c-2,3.5-3.6,7.2-4.7,11.2
		C688.6,122.4,688.1,126.6,688.1,130.9z"/>
</g>
<g>
	<path class="st0" d="M21.1,246.1h0.2L33,222h8.2v31.5h-6.6v-21.9l-0.2-0.1l-11.1,21.9h-4.5L7.6,231.1l-0.2,0.1v22.4H0.9V222h8.5
		L21.1,246.1z"/>
	<path class="st0" d="M73.6,253.6c-0.2-1-0.4-1.8-0.5-2.5s-0.2-1.5-0.2-2.2c-1.2,1.5-2.8,2.8-4.8,3.8s-4.1,1.5-6.3,1.5
		c-3.8,0-6.6-0.8-8.6-2.5c-2-1.7-2.9-4-2.9-7c0-3,1.4-5.4,4.2-7.1c2.8-1.7,6.6-2.5,11.3-2.5h7.1V232c0-1.8-0.6-3.3-1.9-4.4
		s-3.1-1.6-5.5-1.6c-2.1,0-3.9,0.5-5.2,1.4c-1.3,0.9-2,2-2,3.4l-6.2,0.1l-0.1-0.2c-0.2-2.3,1.1-4.4,3.7-6.3c2.6-1.9,6-2.9,10.1-2.9
		c4.1,0,7.4,0.9,9.9,2.7c2.5,1.8,3.7,4.4,3.7,7.9v15.2c0,1.1,0.1,2.2,0.2,3.3c0.1,1,0.4,2.1,0.7,3.1H73.6z M62.7,249.4
		c2.4,0,4.5-0.5,6.4-1.6c1.9-1.1,3.2-2.3,3.7-3.7V239h-7.4c-2.6,0-4.8,0.6-6.3,1.7c-1.6,1.2-2.4,2.5-2.4,4.1c0,1.4,0.5,2.5,1.5,3.3
		C59.2,249,60.7,249.4,62.7,249.4z"/>
	<path class="st0" d="M119.6,239c0,4.5-1.2,8.2-3.7,11c-2.5,2.8-5.9,4.2-10.3,4.2c-2.2,0-4.2-0.3-5.8-1c-1.7-0.7-3.1-1.6-4.3-2.9
		v15.4h-6.6V222h5l1,4.1c1.2-1.5,2.6-2.7,4.4-3.5c1.8-0.8,3.8-1.2,6.1-1.2c4.5,0,7.9,1.5,10.4,4.6c2.5,3.1,3.7,7.2,3.7,12.3V239z
		 M113,238.4c0-3.6-0.8-6.5-2.4-8.8c-1.6-2.3-4-3.5-7.1-3.5c-1.9,0-3.5,0.4-4.8,1.1c-1.3,0.7-2.4,1.8-3.2,3.1v15.2
		c0.8,1.3,1.9,2.3,3.2,3c1.3,0.7,3,1.1,4.9,1.1c3.1,0,5.5-1,7.1-3s2.4-4.6,2.4-7.7V238.4z"/>
	<path class="st0" d="M137.9,240.2h-3.4v13.4H128V222h6.6v13.3h2.8l12.9-13.3h7.7l0.1,0.1l-14.9,15l16.1,16.3l-0.1,0.1H151
		L137.9,240.2z"/>
	<path class="st0" d="M179.3,254.2c-5.2,0-9.2-1.4-12.1-4.3s-4.3-6.7-4.3-11.4v-1.3c0-4.5,1.5-8.3,4.5-11.2c3-3,6.6-4.4,10.9-4.4
		c4.8,0,8.4,1.3,10.8,3.9c2.4,2.6,3.6,6.1,3.6,10.5v3h-23l-0.1,0.1c0,3.2,0.8,5.7,2.4,7.7c1.6,2,4,3,7.3,3c2.2,0,4.2-0.3,5.8-0.8
		c1.7-0.6,3.1-1.3,4.3-2.3l2.6,3.7c-1.3,1.1-3,2-5.1,2.8C184.9,253.8,182.3,254.2,179.3,254.2z M178.3,226c-2.3,0-4.2,0.8-5.7,2.3
		c-1.5,1.5-2.4,3.5-2.7,5.9l0.1,0.1h16.2v-0.5c0-2.3-0.6-4.2-1.9-5.7C183,226.7,181,226,178.3,226z"/>
	<path class="st0" d="M227.5,226.5h-11.9v27.1h-6.6v-27.1h-11.7V222h30.2V226.5z"/>
	<path class="st0" d="M257.3,222h6.6v31.5h-6.6v-22.4l-0.2-0.1l-15.9,22.4h-6.5V222h6.5v22.4l0.2,0.1L257.3,222z"/>
	<path class="st0" d="M302.6,253.6H296v-13.4h-16v13.4h-6.6V222h6.6v13.6h16V222h6.6V253.6z"/>
	<path class="st0" d="M335,226.6h-16.3v27h-6.6V222H335V226.6z"/>
	<path class="st0" d="M338.2,237.5c0-4.7,1.4-8.5,4.3-11.5c2.9-3,6.8-4.5,11.8-4.5c5,0,8.9,1.5,11.8,4.5c2.9,3,4.3,6.9,4.3,11.5v0.6
		c0,4.7-1.4,8.5-4.3,11.5c-2.9,3-6.8,4.5-11.8,4.5c-5,0-8.9-1.5-11.8-4.5c-2.9-3-4.3-6.8-4.3-11.5V237.5z M344.8,238.2
		c0,3.3,0.8,6.1,2.4,8.3c1.6,2.2,4,3.3,7.2,3.3c3.1,0,5.5-1.1,7.1-3.3c1.6-2.2,2.4-4.9,2.4-8.3v-0.6c0-3.3-0.8-6.1-2.4-8.2
		c-1.6-2.2-4-3.3-7.2-3.3c-3.1,0-5.5,1.1-7.1,3.3c-1.6,2.2-2.4,4.9-2.4,8.2V238.2z"/>
	<path class="st0" d="M378.5,253.6V222h14.2c4.7,0,8.4,0.7,11.1,2.2c2.6,1.4,3.9,3.6,3.9,6.5c0,1.5-0.5,2.8-1.5,3.9
		c-1,1.2-2.5,2-4.3,2.6c2.2,0.5,4,1.4,5.2,2.7c1.3,1.3,1.9,2.9,1.9,4.6c0,3-1.2,5.2-3.7,6.7c-2.5,1.5-5.9,2.3-10.3,2.3H378.5z
		 M385.1,235.4h7.7c2.8,0,4.9-0.4,6.3-1.1c1.4-0.7,2.1-1.8,2.1-3.3c0-1.5-0.7-2.6-2.1-3.4c-1.4-0.8-3.5-1.1-6.3-1.1h-7.7V235.4z
		 M385.1,239.8v9.4h10c2.4,0,4.3-0.4,5.5-1.2c1.2-0.8,1.9-2,1.9-3.5c0-1.5-0.6-2.7-1.9-3.5s-3.1-1.2-5.5-1.2H385.1z"/>
	<path class="st0" d="M415.7,237.5c0-4.7,1.4-8.5,4.3-11.5c2.9-3,6.8-4.5,11.8-4.5c5,0,8.9,1.5,11.8,4.5c2.9,3,4.3,6.9,4.3,11.5v0.6
		c0,4.7-1.4,8.5-4.3,11.5c-2.9,3-6.8,4.5-11.8,4.5c-5,0-8.9-1.5-11.8-4.5c-2.9-3-4.3-6.8-4.3-11.5V237.5z M422.3,238.2
		c0,3.3,0.8,6.1,2.4,8.3c1.6,2.2,4,3.3,7.2,3.3c3.1,0,5.5-1.1,7.1-3.3c1.6-2.2,2.4-4.9,2.4-8.3v-0.6c0-3.3-0.8-6.1-2.4-8.2
		c-1.6-2.2-4-3.3-7.2-3.3c-3.1,0-5.5,1.1-7.1,3.3c-1.6,2.2-2.4,4.9-2.4,8.2V238.2z"/>
	<path class="st0" d="M470.9,254.2c-5.2,0-9.2-1.4-12.1-4.3s-4.3-6.7-4.3-11.4v-1.3c0-4.5,1.5-8.3,4.5-11.2c3-3,6.6-4.4,10.9-4.4
		c4.8,0,8.4,1.3,10.8,3.9c2.4,2.6,3.6,6.1,3.6,10.5v3h-23l-0.1,0.1c0,3.2,0.8,5.7,2.4,7.7c1.6,2,4,3,7.3,3c2.2,0,4.2-0.3,5.8-0.8
		c1.7-0.6,3.1-1.3,4.3-2.3l2.6,3.7c-1.3,1.1-3,2-5.1,2.8C476.4,253.8,473.9,254.2,470.9,254.2z M469.9,226c-2.3,0-4.2,0.8-5.7,2.3
		c-1.5,1.5-2.4,3.5-2.7,5.9l0.1,0.1h16.2v-0.5c0-2.3-0.6-4.2-1.9-5.7S472.6,226,469.9,226z"/>
	<path class="st0" d="M530.8,253.6c-0.2-1-0.4-1.8-0.5-2.5s-0.2-1.5-0.2-2.2c-1.2,1.5-2.8,2.8-4.8,3.8c-2,1-4.1,1.5-6.3,1.5
		c-3.8,0-6.6-0.8-8.6-2.5c-2-1.7-2.9-4-2.9-7c0-3,1.4-5.4,4.2-7.1c2.8-1.7,6.6-2.5,11.3-2.5h7.1V232c0-1.8-0.6-3.3-1.9-4.4
		s-3.1-1.6-5.5-1.6c-2.1,0-3.9,0.5-5.2,1.4c-1.3,0.9-2,2-2,3.4l-6.2,0.1l-0.1-0.2c-0.2-2.3,1.1-4.4,3.7-6.3c2.6-1.9,6-2.9,10.1-2.9
		c4.1,0,7.4,0.9,9.9,2.7c2.5,1.8,3.7,4.4,3.7,7.9v15.2c0,1.1,0.1,2.2,0.2,3.3c0.1,1,0.4,2.1,0.7,3.1H530.8z M519.9,249.4
		c2.4,0,4.5-0.5,6.4-1.6c1.9-1.1,3.2-2.3,3.7-3.7V239h-7.4c-2.6,0-4.8,0.6-6.3,1.7c-1.6,1.2-2.4,2.5-2.4,4.1c0,1.4,0.5,2.5,1.5,3.3
		C516.5,249,517.9,249.4,519.9,249.4z"/>
	<path class="st0" d="M569,226.6h-16.3v27h-6.6V222H569V226.6z"/>
	<path class="st0" d="M588.6,254.2c-5.2,0-9.2-1.4-12.1-4.3s-4.3-6.7-4.3-11.4v-1.3c0-4.5,1.5-8.3,4.5-11.2c3-3,6.6-4.4,10.9-4.4
		c4.8,0,8.4,1.3,10.8,3.9c2.4,2.6,3.6,6.1,3.6,10.5v3h-23l-0.1,0.1c0,3.2,0.8,5.7,2.4,7.7c1.6,2,4,3,7.3,3c2.2,0,4.2-0.3,5.8-0.8
		c1.7-0.6,3.1-1.3,4.3-2.3l2.6,3.7c-1.3,1.1-3,2-5.1,2.8C594.2,253.8,591.6,254.2,588.6,254.2z M587.6,226c-2.3,0-4.2,0.8-5.7,2.3
		c-1.5,1.5-2.4,3.5-2.7,5.9l0.1,0.1h16.2v-0.5c0-2.3-0.6-4.2-1.9-5.7S590.3,226,587.6,226z"/>
	<path class="st0" d="M638.6,253.6H632v-13.4h-16v13.4h-6.6V222h6.6v13.6h16V222h6.6V253.6z"/>
	<path class="st0" d="M675.9,226.5h-11.9v27.1h-6.6v-27.1h-11.7V222h30.2V226.5z"/>
	<path class="st0" d="M696.8,249.7c2,0,3.8-0.6,5.3-1.8c1.5-1.2,2.3-2.6,2.3-4.3h5.9l0.1,0.2c0.1,2.7-1.2,5.1-4,7.2
		c-2.8,2.1-5.9,3.2-9.6,3.2c-5.1,0-9-1.5-11.7-4.5s-4.1-6.8-4.1-11.2v-1.2c0-4.4,1.4-8.2,4.1-11.2c2.8-3,6.7-4.5,11.7-4.5
		c4,0,7.3,1.1,9.9,3.3c2.6,2.2,3.8,4.8,3.7,8l-0.1,0.2h-6c0-1.9-0.7-3.6-2.1-4.9c-1.4-1.3-3.2-2-5.4-2c-3.2,0-5.6,1.1-7,3.3
		c-1.5,2.2-2.2,4.8-2.2,7.9v1.2c0,3.2,0.7,5.8,2.2,8S693.5,249.7,696.8,249.7z"/>
	<path class="st0" d="M745.9,226.5H734v27.1h-6.6v-27.1h-11.7V222h30.2V226.5z"/>
	<path class="st0" d="M753.1,253.6V222h14.2c4.7,0,8.4,0.7,11.1,2.2c2.6,1.4,3.9,3.6,3.9,6.5c0,1.5-0.5,2.8-1.5,3.9
		c-1,1.2-2.5,2-4.3,2.6c2.2,0.5,4,1.4,5.2,2.7c1.3,1.3,1.9,2.9,1.9,4.6c0,3-1.2,5.2-3.7,6.7c-2.5,1.5-5.9,2.3-10.3,2.3H753.1z
		 M759.6,235.4h7.7c2.8,0,4.9-0.4,6.3-1.1c1.4-0.7,2.1-1.8,2.1-3.3c0-1.5-0.7-2.6-2.1-3.4c-1.4-0.8-3.5-1.1-6.3-1.1h-7.7V235.4z
		 M759.6,239.8v9.4h10c2.4,0,4.3-0.4,5.5-1.2c1.2-0.8,1.9-2,1.9-3.5c0-1.5-0.6-2.7-1.9-3.5s-3.1-1.2-5.5-1.2H759.6z"/>
	<path class="st0" d="M790.3,237.5c0-4.7,1.4-8.5,4.3-11.5c2.9-3,6.8-4.5,11.8-4.5c5,0,8.9,1.5,11.8,4.5c2.9,3,4.3,6.9,4.3,11.5v0.6
		c0,4.7-1.4,8.5-4.3,11.5c-2.9,3-6.8,4.5-11.8,4.5c-5,0-8.9-1.5-11.8-4.5c-2.9-3-4.3-6.8-4.3-11.5V237.5z M796.8,238.2
		c0,3.3,0.8,6.1,2.4,8.3c1.6,2.2,4,3.3,7.2,3.3c3.1,0,5.5-1.1,7.1-3.3c1.6-2.2,2.4-4.9,2.4-8.3v-0.6c0-3.3-0.8-6.1-2.4-8.2
		c-1.6-2.2-4-3.3-7.2-3.3c-3.1,0-5.5,1.1-7.1,3.3c-1.6,2.2-2.4,4.9-2.4,8.2V238.2z"/>
</g>
<polygon class="st1" points="734.8,27.8 823.8,180.8 646.8,180.8 "/>
<circle class="st2" cx="647.6" cy="180.9" r="178.1"/>
<circle class="st2" cx="822.7" cy="180.9" r="178.1"/>
</svg>
